{
  "images" : [
    {
      "idiom" : "universal",
      "filename" : "80db4aff6f2e8f7d9a4e164e49a51bcb_table-tennis-bat-clipart-crossing-table-tennis-paddles-clipart_600-410.png",
      "scale" : "1x"
    },
    {
      "idiom" : "universal",
      "scale" : "2x"
    },
    {
      "idiom" : "universal",
      "scale" : "3x"
    }
  ],
  "info" : {
    "version" : 1,
    "author" : "xcode"
  }
}